…
$`Mauchly's Test for Sphericity`
      Effect         W            p p<.05
3       time 0.1283365 3.096158e-35     *
4 shift:time 0.1283365 3.096158e-35     *

$`Sphericity Corrections`
      Effect       GGe        p[GG] p[GG]<.05       HFe        p[HF] p[HF]<.05
3       time 0.5250303 6.034008e-25         * 0.5404687 1.326925e-25         *
4 shift:time 0.5250303 3.059101e-24         * 0.5404687 7.051349e-25         *

# A tibble: 288 x 15
   X1                   duration efficiency minutesAsleep total_seconds mean_seconds frequency    mid mid_std duration_diff shift  lang work  start   end
   <chr>                   <dbl>      <dbl>         <dbl>         <dbl>        <dbl>     <dbl>  <dbl>   <dbl>         <dbl> <chr> <dbl> <chr> <dbl> <dbl>
 1 02581754-36cd-4b23-…     312.       90.9          86.8         23.8         1.51      17.9  357.      4.93         110.  night     1 all   NA    NA   
 2 02581754-36cd-4b23-…     277.       91.2          86.3         23.7         1.71      16.3   11.1    NA             NA   night     1 work…  8.65 13.7 
 3 02581754-36cd-4b23-…     357.       90.4          87.4         24.0         1.25      19.9    4.13   NA             NA   night     1 offd…  0.85  8.62
 4 02b7a595-6508-46bd-…     456.       93.5          85.1          4.35        0.905      5.82  69.5     6.49          35.2 day       1 all   NA    NA   
 5 02b7a595-6508-46bd-…     463.       94.2          86.1          2.52        0.488      5.11   2.38   NA             NA   day       1 work… 22.5   5.99
 6 02b7a595-6508-46bd-…     452.       93.2          84.7          5.62        1.19       6.31   3.47   NA             NA   day       1 offd… 22.9   7.82
 7 05dedb61-63bc-44e3-…     368.       92.8          88.4         61.0        24.9        3.09 482       5.53          87.5 night     2 all   NA    NA   
 8 05dedb61-63bc-44e3-…     349.       93.3          89.0         58.4        19.7        3.05  12.6    NA             NA   night     2 work…  9.93 15.3 
 9 05dedb61-63bc-44e3-…     401.       91.9          87.2         66.0        35.3        3.18   3.03   NA             NA   night     2 offd… 23.6   8.08
10 06b33ec4-706d-462f-…     425.       95.0          88.2         NA          NA         NA    622.      6.25          81.2 night     2 all   NA    NA   
# … with 278 more rows
…
